{
  "apps": [
    {
      "exec_mode": "fork_mode",
      "script": ".",
      "name": "router-1",
      "env": {
        "PORT": 3001,
        "NODE_ENV": "production"
      },
      "error_file": "./logs/router-1-err.log",
      "out_file": "./logs/router-1-out.log"
    },
    {
      "exec_mode": "fork_mode",
      "script": ".",
      "name": "router-2",
      "env": {
        "PORT": 3002,
        "NODE_ENV": "production"
      },
      "error_file": "./logs/router-2.err.log",
      "out_file": "./logs/router-2.out.log"
    },
    {
      "exec_mode": "fork_mode",
      "script": ".",
      "name": "router-3",
      "env": {
        "PORT": 3003,
        "NODE_ENV": "production"
      },
      "error_file": "./logs/router-3-err.log",
      "out_file": "./logs/router-3-out.log"
    },
    {
      "exec_mode": "fork_mode",
      "script": ".",
      "name": "router-4",
      "env": {
        "PORT": 3004,
        "NODE_ENV": "production"
      },
      "error_file": "./logs/router-4.err.log",
      "out_file": "./logs/router-4.out.log"
    }
  ]
} 
